  {{with $field := field "i.Content" .}}
    <p class="{{$field.ErrorClass}}">
      <strong>Content:</strong>
      <textarea rows="100" cols="80" name="{{$field.Name}}" value="{{$field.Flash}}"> *
      <span class="error">{{$field.Error}}</span>
    </p>
  {{end}}

	  <form id="d{{.Id}}" method="POST" action="matlab/instance/{{.Id}}/stop">
          <a href="javascript:document.getElementById('d{{.Id}}').submit();">Stop</a>
	</form>
        <form id="d{{.Id}}" method="GET" action="matlab/instance/{{.Id}}/edit">
          <a href="javascript:document.getElementById('d{{.Id}}').submit();">Edit</a>
	</form>
<form id="d{{.Id}}" method="DELETE" action="matlab/instance/{{.Id}}/delete">
          <a href="javascript:document.getElementById('d{{.Id}}').submit();">Delete</a>
	</form>

